{
  "name": "Presentation 1", // Название презентации
  "status": "active", // Статус презентации
  "activeSlide": 1, // Текущий активный слайд
  "presentationID": 2, // Передаем при повторном сохранение, получается при первом сохранении
  "slides": [ // Все слайды
    {
      "id": 1, // Id слайда
      "question": "How many?", // Основной вопрос
      "chartsId": 4, // Тип графика
      "answers": [ // Вопросы
        {
          "id": 1, // Id вопроса
          "text": "Ты пидрs?" // Текст Вопроса
        },
        {
          "id": 2,
          "text": "Он пидр?"
        },
        {
          "id": 3,
          "text": "Они пидр?"
        }
      ]
    },
    {
      "id": 2,
      "question": "How not many?",
      "chartsId": 3,
      "answers": [
        {
          "id": 1,
          "text": "Ты пидр?"
        },
        {
          "id": 2,
          "text": "Он пидр?"
        },
        {
          "id": 3,
          "text": "Они пидр?"
        }
      ]
    }
  ]
}